…
Adding New Variables

We’ll add the official BMI designation for each observation.

We’ll also add some variables indicating appendicular skeletal muscle (ASM) and appendicular skeletal muscle index (ASMI). With these new variables made we can also assign ASMI categories similarly to the BMI categories, though we only have two. The International Working Group on Sarcopenia determined diagnostic sarcopenia thresholds as <= 7.23 ASMI for men and <= 5.67 ASMI for women, so these are the values we’ll use. CITATION

## [1] 3290

About 3,300 participants in the data set can be considered sarcopenic according the cut-offs.

Final Cleaning

Having all the varialbes required for analysis, what is no longer needed can be removed. We can also change the mortality variable to a factor, which will make the data visualization easier later on.

## # A tibble: 18,536 x 11
##       id perc_fat   bmi gender   age age_m mortcode bmi_status  asmi sarc 
##    <int>    <dbl> <dbl> <fct>  <dbl> <dbl>    <int> <fct>      <dbl> <lgl>
##  1  9966     29.1  30.2 male      39   472        0 Obese       9.01 FALSE
##  2  9967     29.2  30.0 male      23   283        0 Overweight 10.3  FALSE
##  3  9968     40.2  24.6 female    84  1011        1 Healthy     5.52 TRUE 
##  4  9969     31.8  22.3 female    51   612        0 Healthy     6.57 FALSE
##  5  9972     37.1  33.8 male      44   534        0 Obese       8.83 FALSE
##  6  9973     44.9  26.6 female    63   762        0 Overweight  5.43 TRUE 
##  7  9976     22.1  22.5 male      36   436        0 Healthy     7.22 TRUE 
##  8  9979     26.3  22.3 male      60   727        0 Healthy     6.42 TRUE 
##  9  9980     50.2  38.6 female    85    NA        1 Obese       8.78 FALSE
## 10  9984     46.5  36.1 female    46   559        0 Obese       7.53 FALSE
## # ... with 18,526 more rows, and 1 more variable: mortstat <fct>
…
